{
  "std_digitalscan":["OccupancyMap"],
  "std_analogscan":["OccupancyMap"],
  "std_thresholdscan":["ThresholdMap","NoiseMap","Chi2Map"],
  "std_totscan":["MeanTotMap","SigmaTotMap"],
  "std_noisescan":["NoiseOccupancy"],
  "std_crosstalkscan":[],
  "std_discbumpscan":[]
}
