{
  "ELECTRICAL_TEST":{
        "setting_temp":null,
        "scantypes":["std_digitalscan","std_analogscan","std_thresholdscan","std_totscan"],
        "analysis": { "run":false, "name":"" }
  },
  "READOUT_IN_BASIC_ELECTRICAL_TEST":{
        "setting_temp":null,
        "scantypes":["std_digitalscan","std_analogscan","std_thresholdscan","std_totscan","std_discbumpscan.json"],
        "analysis": { "run":false, "name":"" }
  },
  "PIXEL_FAILURE_TEST":{
        "setting_temp":null,
        "scantypes":["std_digitalscan","std_analogscan","std_thresholdscan","std_totscan","std_noisescan","std_crosstalkscan"],
        "analysis": { "run":true, "name":"bad_pixel_analysis" }
  },
  "PIXEL_FAILURE_TEST_30_DEGREE":{
        "setting_temp":30,
        "scantypes":["std_digitalscan","std_analogscan","std_thresholdscan","std_totscan","std_noisescan","std_crosstalkscan"],
        "analysis": { "run":true, "name":"bad_pixel_analysis" }
  },
  "PIXEL_FAILURE_TEST_20_DEGREE":{
        "setting_temp":20,
        "scantypes":["std_digitalscan","std_analogscan","std_thresholdscan","std_totscan","std_noisescan","std_crosstalkscan"],
        "analysis": { "run":true, "name":"bad_pixel_analysis" }
  },
  "PIXEL_FAILURE_TEST_min15_DEGREE":{
        "setting_temp":-15,
        "scantypes":["std_digitalscan","std_analogscan","std_thresholdscan","std_totscan","std_noisescan","std_crosstalkscan"],
        "analysis": { "run":true, "name":"bad_pixel_analysis" }
  },
  "SOURCE_SCAN":{
        "setting_temp":null,
        "scantypes":["std_xrayscan"],
        "analysis": { "run":true, "name":"bad_pixel_analysis" }
  },
  "BUMP_BOND_QUALITY":{
        "setting_temp":null,
        "scantypes":["std_noisescan.json","std_discbumpscan.json"],
        "analysis": { "run":false, "name":"" }
  }
}
